AAMEHS_finalproj
…
wf_11_18

## # A tibble: 1,233 x 23
##    objectid agency comments mapmethod datecurrent uniquefireident fireyear
##       <dbl> <chr>  <chr>    <chr>     <chr>       <chr>               <dbl>
##  1        8 USFS   Event S Mixed Me 2018/08/06 2018-CALNF-0039     2018
##  2       11 State From Ca Unknown   2014/06/23 2013-CALNU-0068     2013
##  3       19 C&L    Event S Unknown   2017/12/28 2017-CAVNC-1031     2017
##  4       65 USFS   FIMT     Unknown   2016/09/20 2016-CAMDF-0009     2016
##  5       73 CDF    FIMT     Unknown   2018/02/23 2018-CABDU-0027     2018
##  6       77 CDF    FIMT     Unknown   2016/08/24 2016-CAHUU-0069     2016
##  7       83 CDF    FIMT     Unknown   2016/08/15 2016-CAHUU-0066     2016
##  8       87 NPS    WFDSS    Hand Ske 2017/08/21 2017-CAYNP-0000     2017
##  9       92 USFS   WFDSS    GPS-Walk 2016/09/19 2016-CASTF-0026     2016
## 10      110 C&L    Event S Unknown   2018/01/08 2017-CAVNC-1031     2017
## #  with 1,223 more rows, and 16 more variables: incidentname <chr>,
## #   pooownerunit <chr>, perimeterdatetime <chr>, gisacres <dbl>,
## #   complexname <chr>, firecode <chr>, complexparentirwinid <chr>,
## #   pooresponsibleunit <chr>, state <chr>, inciwebid <dbl>,
## #   localincidentidentifier <chr>, irwinid <chr>, incomplex <chr>,
## #   complexfirecode <chr>, shape_length <dbl>, shape_area <dbl>
…
